{
    "defaultSeverity": "error",
    "extends": [
        "tslint:recommended",
        "tslint-eslint-rules"
    ],
    "rules": {
        "max-classes-per-file": false,
        "member-access": [
            true,
            "no-public"
        ],
        "object-curly-spacing": true,
        "object-literal-sort-keys": false,
        "whitespace": [
            true,
            "check-decl",
            "check-module",
            "check-branch",
            "check-operator",
            "check-preblock",
            "check-rest-spread",
            "check-separator",
            "check-type",
            "check-type-operator"
        ],
        "interface-name": [true, "never-prefix"],
        "no-namespace": false,
        "no-duplicate-imports": true,
        "deprecation": { "severity": "warning" }
    }
}
